806925
720905
362502
450560
831492
690178
645120
446476
176137
104461
739333
245773
745477
581659
178199
479261
229406
167968
526379
821290
475180
73777
557113
215102
720949
237635
692299
129096
192591
917568
249932
831580
907356
964703
815197
991326
622682
620639
839764
874582
47196
612437
700501
997487
297063
276576
671852
858209
784487
223342
530552
24689
176241
647293
286832
594047
809077
159864
880753
573556
622709
946319
264320
825482
374926
30861
227468
997535
610459
325777
2198
127127
686237
618654
671890
585874
796841
989354
77990
352431
731321
868533
729266
835765
352447
116923
581813
852144
540875
803023
235719
704719
661709
200
630979
420045
856285
973022
268500
680153
526555
964826
966871
823505
26847
932075
428256
653536
624864
772320
903393
579813
446699
297193
395497
878844
127219
567548
833785
78070
839924
366846
936176
108808
583939
454922
844033
399625
952604
995612
825624
444688
944408
643359
325912
882963
622889
962863
223522
756015
852267
743714
463149
137519
522550
846142
88373
22840
391485
553264
381247
223548
561484
381250
2379
932162
706885
258380
434518
831838
805208
772445
667986
262495
63840
14693
881000
895339
98667
735584
385386
534904
479607
668027
604539
545147
909688
160119
178556
225665
375174
969101
604557
643468
784781
344450
866698
33163
432534
795032
919961
389533
35224
108952
717201
559508
475547
108959
188835
848303
870830
774574
70055
616865
127405
653732
360875
846243
111022
932287
293303
27062
500145
410032
31159
930233
860597
43450
160184
960948
33213
545206
649672
838094
235974
627151
301518
909766
109005
858561
920000
592345
223698
635352
889311
735704
326096
317906
211412
659923
567765
291291
410086
569833
731625
246241
168423
254437
567790
537071
309743
983551
778746
104946
174582
131573
672253
569855
592369
229885
473605
842254
522756
809482
698880
985605
469516
653826
135689
453133
827904
31246
723460
186898
582170
997914
678418
686632
354854
623148
660003
57904
932415
96825
223801
723504
660020
754228
178749
490050
991817
371266
436801
227914
889415
467533
858694
383562
428630
170578
240211
649821
33371
270936
57955
424546
838251
45673
129640
782945
60013
496247
799357
819838
944760
186996
574066
598646
350855
66185
291470
348808
815770
187029
318099
518811
963217
959151
545454
318115
963239
742049
15019
199343
150190
410283
774822
19124
707262
340656
453297
537279
174779
895671
922316
760520
576193
819909
283337
553691
508628
260823
744159
516819
312018
391900
510695
221923
273124
879340
377575
393955
226025
64241
662264
158452
860923
56060
602868
979717
750336
305928
885505
951043
627463
819970
396041
963356
987932
596767
754451
377631
49949
580396
680751
324387
127792
80693
346930
84790
971575
514873
445240
418629
938826
224070
146250
336717
344908
721734
498504
797534
633690
621402
228181
312147
629585
322398
656208
21340
719703
523096
484198
629611
369510
170849
885610
295788
416623
498551
244595
463735
197491
650106
740223
516979
181109
572287
283517
648051
777072
500602
910217
426882
938888
908165
648064
846727
570245
965504
768920
342931
920
787347
414617
711592
5026
738216
566188
134052
400288
314274
437153
388015
557986
658342
459688
326571
111536
527289
160695
152506
170938
123836
394171
549814
318395
945102
508871
693195
572361
854988
713678
551884
807881
834502
27596
312266
668634
52182
889819
463825
799698
693205
33762
721903
345057
769007
377839
961507
797667
967678
664571
99315
793598
789497
654325
508935
435204
597002
187399
330767
506892
101386
304143
437261
873501
887836
795674
494621
896023
232472
287768
138270
416795
435224
654376
875564
623662
713766
640037
586789
594983
635942
820284
805949
228401
693310
9270
633904
293945
984143
824397
121924
377923
517185
25672
177224
119884
308310
490579
803928
382035
205915
691280
126047
177245
453721
314468
195682
640104
33889
771176
13411
136295
396385
300150
388214
482418
492658
554109
427123
967798
396410
74879
332932
472197
656512
165006
222348
558233
601242
224400
339094
511121
883861
545937
353446
611501
21669
779436
162984
398508
130218
476331
169135
418987
775352
740543
535728
449727
70840
152771
593100
54478
206034
105684
48341
156887
197846
240854
765148
781522
992468
648424
281830
74978
214247
523488
992484
496875
824546
586982
793826
820450
161005
87280
560381
150772
795898
988406
937202
222460
552200
224513
292103
445696
673037
855301
365836
736514
134408
699655
533784
341269
339221
632088
451860
658713
101650
994584
126233
290078
222489
746769
740624
539924
83228
62750
66847
66849
603433
290082
302380
345388
689443
515373
959780
730400
511276
134451
869692
544058
603450
736568
941373
324913
75063
697661
62777
187704
480582
949580
165188
554304
318797
744769
54604
152922
218456
517467
138591
290137
994641
992592
130401
425318
757103
316769
460142
742757
763236
527737
699768
372086
130422
32120
499066
413060
554378
87427
914826
898442
542082
542084
550276
599430
865694
769436
306590
617874
550292
193950
812433
603560
566698
294304
9638
921001
132522
454062
126379
595362
957859
148909
169394
177586
466352
830901
679344
671159
716234
157122
820685
757198
21958
769472
980418
77262
241119
175581
196061
415206
613867
435682
216551
738798
79334
247274
564707
671206
36342
531952
394750
839152
923120
245250
558604
863752
583169
105992
433677
372234
378391
564752
828949
319007
841239
634389
923155
36382
175644
30239
767530
337446
89643
544291
734757
589350
40495
876093
177715
144950
599613
319024
638512
794160
806448
144956
151101
507463
310855
591429
417352
443988
562780
147030
542301
972372
982608
560747
956010
30313
269933
593509
349801
556645
558693
630372
464488
820835
585338
122484
876154
507517
824945
769675
841357
679565
743042
626306
511624
884380
169620
454303
403101
190110
46749
894636
994990
3745
159392
388769
865961
587436
978596
499372
906912
900770
265908
208565
452273
562864
773808
173758
386744
900784
77502
50882
87750
992968
14023
460494
825029
128714
650948
818904
71383
610000
69341
175836
693973
34529
521957
257760
388835
808683
618209
937722
790264
1783
374524
245503
304901
708353
839431
429833
599833
763674
739102
438035
276242
519966
714512
374559
210719
44830
235298
841518
325415
909096
616239
907050
472864
163625
831265
137010
184113
436026
671541
796492
782155
489284
716611
837446
548677
915293
253777
671577
249687
841560
984921
313180
608081
976727
190296
456538
34656
722794
890732
538478
679788
591713
558945
192361
423789
18287
935803
327539
163704
497532
315256
663415
98175
901007
929677
774031
24453
642944
876420
546694
898946
151442
227218
247703
352154
108446
444323
579503
606114
901024
247731
51123
772031
454576
583615
446399
640947
10170
255935
497592
565194
319425
413632
786380
155594
407500
677825
950213
425943
886751
384979
163802
296925
346073
239582
425947
47072
53216
761833
6114
802793
741357
260068
120808
927716
387054
772071
14316
147436
460791
323572
655356
403443
342003
49145
577522
839671
587766
810995
